Case Study 01
…
Read data from Beers and Breweries data sets. Make sure to update the file path before running this code.

Beers <- read.csv("Beers.csv", header=T, na.strings=c("","NA"))
Breweries <- read.csv("Breweries.csv", header=T, na.strings=c("","NA"))

Question 1: How many breweries are present in each state?

In the following histograms, you can see the number of breweries in each state. Colorado has the most breweries, followed second by California. We also see that West Virginia, Delaware, North Dakota, and South Dakota only have one brewery in their state. Next, you can see a map of the United States that shows the number of breweries per state. The lighter red indicates fewer breweries, and the darker red indicates more breweries. Finally, we created a pie chart to visualize what percentage of the country’s breweries is in the top states. Colorado, California, and Michigan hold the most breweries per state in the US. They account for 21% of the entire nation’s breweries.

#Create a table with number of breweries per state
Breweries.By.State <- Breweries %>% group_by(State) %>% dplyr::summarise(count = n()) %>%
  arrange(desc(count)) 
Breweries.By.State

## # A tibble: 51 x 2
##    State count
##    <chr> <int>
##  1 " CO"    47
##  2 " CA"    39
##  3 " MI"    32
##  4 " OR"    29
##  5 " TX"    28
##  6 " PA"    25
##  7 " MA"    23
##  8 " WA"    23
##  9 " IN"    22
## 10 " WI"    20
## # ... with 41 more rows
…
#Pie Chart showing percentage of breweries held by top three states 
Breweries.By.State.Graph

## # A tibble: 51 x 2
##    state count
##    <chr> <int>
##  1 CO       47
##  2 CA       39
##  3 MI       32
##  4 OR       29
##  5 TX       28
##  6 PA       25
##  7 MA       23
##  8 WA       23
##  9 IN       22
## 10 WI       20
## # ... with 41 more rows
…
#Show summary statistics for median ABV and IBU
brewByState.Stats <- brewByState %>% group_by(State) %>% 
  dplyr::summarise(medianABV = median(ABV), medianIBU = median(IBU), maxABV = max(ABV), maxIBU = max(IBU))  
brewByState.Stats

## # A tibble: 51 x 5
##    State medianABV medianIBU maxABV maxIBU
##    <chr>     <dbl>     <dbl>  <dbl>  <dbl>
##  1 " AK"    0.056       31    0.068     71
##  2 " AL"    0.06        39.5  0.093    103
##  3 " AR"    0.052       31    0.061     41
##  4 " AZ"    0.055       21.5  0.095     99
##  5 " CA"    0.058       40    0.099    115
##  6 " CO"    0.06        35    0.128    104
##  7 " CT"    0.06        31    0.09      91
##  8 " DC"    0.0625      27    0.092    115
##  9 " DE"    0.06        60.5  0.065     69
## 10 " FL"    0.0555      35.8  0.082     82
## # ... with 41 more rows
…
